[comment encoding = UTF-8 /]
[module WebAppGenerator('http://www.ustb.edu.cn/sei/mde/webapp')]


[template public GenerateWebISModel(aWebModel : WebApplication)]
	[comment @main /]
	[for(wc:PageComponent | aWebModel.pageComponents)]
    [GeneratePageComponent(wc)/]
	[/for]
	[for(js:ServerComponent| aWebModel.serverComponents)]
    [GenerateServerPageComponent(js)/]
	[/for]
	[for(ds:ClassComponent| aWebModel.classComponents)]
    [GenerateClassComponent(ds,aWebModel)/]
	[/for]
    [if (aWebModel.databaseUtilClass->size()>1)]
    [GenerateDatabaseUtil(aWebModel)/]
    [/if]
[/template]

[template private GeneratePageComponent (aWebComponent : PageComponent) ]
[if(aWebComponent.page=false)]
[file (aWebComponent.getURL(), false, 'UTF-8')]
[let rootNode : HTMLNode = aWebComponent.node]
<[rootNode.tag/][if (not rootNode.id.oclIsUndefined())] id="[rootNode.id/]"[/if][if (not rootNode.class.oclIsUndefined())] class="[rootNode.class/]"[/if][if(rootNode.styles->notEmpty())] style="[for (ea : String | rootNode.styles) separator(';')][ea/][/for]"[/if][for (ea : String | rootNode.extra)] [ea/][/for][for(eh:EventHandler|rootNode.handlers)][if(not eh.handler.oclIsUndefined())] [eh.event/]="[eh.handler.name/](this)"[/if][/for]> 
[if(aWebComponent.operations->notEmpty())]
<script language="javascript">
[let functions : OrderedSet(OperationRealization) = aWebComponent.operations->select(s:OperationRealization | s.name <>'main')]
[for (f : OperationRealization | functions)]
function [f.name/]([for(p : Parameter | f.parameters) separator (',')][p.name/][/for]){
[GenerateOperationBody(f)/]}
[/for][/let]
[let mains:OrderedSet(OperationRealization) = aWebComponent.operations->select(s:OperationRealization | s.name='main')]
[for(main:OperationRealization | mains)]
[GenerateOperationBody(main)/][/for]
[/let]
[let pcs : OrderedSet(Composition) = aWebComponent.compositions->select(c:Composition|c.oclIsTypeOf(PageComponentComposition))]
[for(ct:String | pcs->collect(uc:Composition|uc.oclAsType(PageComponentComposition).time)->asSet())]
[for(uc:Composition | aWebComponent.compositions->select(c:Composition|c.oclAsType(PageComponentComposition).time=ct))]
[uc.oclAsType(PageComponentComposition).containerSelector/].[ct/](function(){
  [uc.oclAsType(PageComponentComposition).containerSelector/].load([if(uc.url->size()>1)][uc.url/][else]"[uc.deployable.getURL()/]"[/if]);
});
[/for]
[/for]
[/let]
</script>
[/if]
[rootNode.innerText/]
[GenerateHTMLNode(rootNode.children)/] 
</[rootNode.tag/]>
[/let]
[/file]
[else]
[file (aWebComponent.getURL(), false, 'UTF-8')]
<html>
<head>
<meta http-equiv="content-type" content="text/html; charset=UTF-8" /> 
<script src="jquery-1.11.1.min.js"></script>
<script>
[let pcs : OrderedSet(Composition) = aWebComponent.compositions->select(c:Composition|c.oclIsTypeOf(PageComponentComposition))]
[for(ct:String | pcs->collect(uc:Composition|uc.oclAsType(PageComponentComposition).time)->asSet())]
$(document).[ct/](function(){
[for(uc:Composition | aWebComponent.compositions->select(c:Composition|c.oclAsType(PageComponentComposition)=ct))]
  [uc.oclAsType(PageComponentComposition).containerSelector/].load([if(uc.url->size()>1)][uc.url/][else]"[uc.deployable.getURL()/]"[/if]);
[/for]
  }
);
[/for]
[/let]
</script>
[if(aWebComponent.operations->notEmpty())]
<script language="javascript">
[let functions : OrderedSet(OperationRealization) = aWebComponent.operations->select(s:OperationRealization | s.name<>'main')]
[for (f : OperationRealization | functions)]
function [f.name/]([for(p : Parameter | f.parameters) separator (',')][p.name/][/for]){
[GenerateOperationBody(f)/]}
[/for]
[/let]
[let mains:OrderedSet(OperationRealization) = aWebComponent.operations->select(s:OperationRealization | s.name='main')]
[for(main:OperationRealization | mains)]
[GenerateOperationBody(main)/][/for]
[/let]
</script>
[/if]
</head>
<body>
[GenerateHTMLNode(OrderedSet{aWebComponent.node})/] 
</body>
</html>
[/file]
[/if]
[/template]

[template private GenerateHTMLNode(nodes : OrderedSet(HTMLNode))]
[for(n:HTMLNode|nodes)]<[n.tag/][if (not n.id.oclIsUndefined())] id="[n.id/]"[/if][if (not n.class.oclIsUndefined())] class="[n.class/]"[/if][if(n.styles->notEmpty())] style="[for (ea : String | n.styles) separator(';')][ea/][/for]"[/if][for (ea : String | n.extra)] [ea/][/for][for(eh:EventHandler|n.handlers)][if(not eh.handler.oclIsUndefined())] [eh.event/]="[eh.handler.name/](this)"[/if][/for]>
[n.innerText/]
[GenerateHTMLNode(n.children)/]</[n.tag/]>
[/for]
[/template]

[template private GenerateServerPageComponent (aServerComponent : ServerComponent) ]
[file(aServerComponent.getURL(), false, 'UTF-8')]
<%@ page contentType="[if(aServerComponent.contentType=PageContentType::html)]text/html[elseif(aServerComponent.contentType=PageContentType::xml)]text/xml[elseif(aServerComponent.contentType=PageContentType::json)]text/json[else]text/html[/if]; charset=UTF-8" language="java"[if(aServerComponent.imports->notEmpty())] import="[for(imp:String|aServerComponent.imports) separator(' ')][imp/][/for]"[/if] errorPage=""  pageEncoding="UTF-8"%>
[let ops : OrderedSet(OperationRealization) = aServerComponent.operations->select(o:OperationRealization | o.name<>'main')]
[for(op : OperationRealization | ops)]
<%!
private [op.type/] [op.name/]([for(p:Parameter|op.parameters) separator(',')][p.type/] [p.name/][/for]) {
[GenerateOperationBody(op)/]
}
%>
[/for]
[/let]
<%
response.setHeader("Access-Control-Allow-Origin","*");
[let main:OperationRealization = aServerComponent.operations->select(o:OperationRealization | o.name='main')->first()]
[for(p:Parameter|main.parameters)]
[if(p.type='String')]
String [p.name/] = request.getParameter("[p.name/]");
[elseif(p.type='String[]')]
String['[]'/] [p.name/] = request.getParameterValues("[p.name/]");
[/if]
[/for]
[GenerateOperationBody(main)/]%>
[/let]
[/file]
[/template]

[template private GenerateOperationBody(f : OperationRealization)]
[if (f.oclIsTypeOf(CodeOperation))]
[f.oclAsType(CodeOperation).bodyCode/][elseif(f.oclIsTypeOf(ActionOperation))]
[let ao:ActionOperation = f.oclAsType(ActionOperation)]
[GenerateAction(ao.action)/][/let][/if]
[/template]

[template private GenerateAction(anAction : Action)]
[if (not anAction.oclIsUndefined())]
[if (anAction.oclIsTypeOf(SequenceAction))]
[for(sq:Action | anAction.oclAsType(SequenceAction).actions)]
[GenerateAction(sq)/][/for]
[elseif(anAction.oclIsTypeOf(IfAction))]
[let ifA:IfAction = anAction.oclAsType(IfAction)]
if([ifA.conditionCode/]) {
[GenerateAction(ifA.thenAction)/]} else {
[GenerateAction(ifA.elseAction)/]}
[/let]
[elseif(anAction.oclIsTypeOf(ForAction))]
[let forA:ForAction = anAction.oclAsType(ForAction)]
for([forA.conditionCode/]) {
[GenerateAction(forA.bodyAction)/]}
[/let]
[elseif(anAction.oclIsTypeOf(CallAction))]
[let ca : CallAction = anAction.oclAsType(CallAction)]
[ca.invocationTarget.name/]([for(p:String|ca.parameterCodes) separator (' ,')][p/][/for])[if(isStatement(ca))];
[/if]
[/let]
[elseif(anAction.oclIsTypeOf(TryCatchAction))]
[let tcA:TryCatchAction = anAction.oclAsType(TryCatchAction)]
try{
[GenerateAction(tcA.tryPart)/]}[for (cp : CatchPart | tcA.catchParts)] catch([cp.exceptionVariable/]){
[GenerateAction(cp.actioin)/]}[/for][if (tcA.finalPart<>null)] finally{
[GenerateAction(tcA.finalPart)/]}
[/if]
[/let]
[elseif(anAction.oclIsTypeOf(CodeAction))]
[(anAction.oclAsType(CodeAction)).code/]
[elseif(anAction.oclIsTypeOf(LetAction))]
[let la:LetAction = anAction.oclAsType(LetAction)]
[la.leftCode/]=[GenerateAction(la.right)/][if(isStatement(la))];
[/if]
[/let]
[elseif(anAction.oclIsTypeOf(JQueryAjaxAction))]
[let ja : JQueryAjaxAction = anAction.oclAsType(JQueryAjaxAction)]
[ja.selectorCode/].[if (ja.ajaxType=AjaxType::ajaxLoad)]load[elseif(ja.ajaxType=AjaxType::ajaxGet)]get[elseif(ja.ajaxType=AjaxType::ajaxPost)]post[/if]([if(ja.url->size()>1)][ja.url/][else]"[ja.deployable.getURL()/]"[/if][if(not ja.dataCode.oclIsUndefined())],[ja.dataCode/][/if][if(not ja.callbackFunction.oclIsUndefined())],[GenerateUnnamedJavascriptFunction(ja.callbackFunction)/][/if][if(ja.dataType=DataFormat::xml)],"xml"[elseif(ja.dataType=DataFormat::json)],"json"[elseif(ja.dataType=DataFormat::script)],"script"[elseif(ja.dataType=DataFormat::html)],"html"[/if])[if(isStatement(ja))];
[/if]
[/let]
[elseif(anAction.oclIsTypeOf(JQueryEventAction))]
[let ja : JQueryEventAction = anAction.oclAsType(JQueryEventAction)]
[ja.selectorCode/].[ja.event/]([if(not ja.handler.oclIsUndefined())][GenerateUnnamedJavascriptFunction(ja.handler)/][/if])[if(isStatement(ja))];
[/if]
[/let]
[elseif(anAction.oclIsTypeOf(ServerPageTemplateAction))][let ja : ServerPageTemplateAction = anAction.oclAsType(ServerPageTemplateAction)]%>[ja.text/]<%[/let]
[elseif(anAction.oclIsTypeOf(ServerPageExpressionAction))][let ja : ServerPageExpressionAction = anAction.oclAsType(ServerPageExpressionAction)]%><%=[ja.expression/]%><%[/let]
[elseif(anAction.oclIsTypeOf(SQLSelectAction))]{
[let ssa : SQLSelectAction = anAction.oclAsType(SQLSelectAction)]
String sql_[ssa.sqlName/]="select [if(ssa.columns->isEmpty())]*[else][for (c : String | ssa.columns) separator(',')][c/][/for][/if] from [for (c : String | ssa.tables) separator(',')][c/][/for]"[if(ssa.conditionCode->size()>1)]+" where "+[ssa.conditionCode/][/if];
Statement stmt_[ssa.sqlName/] = [ssa.database.name.toLowerFirst()/]Conn.createStatement();  
ResultSet [ssa.sqlName/] = stmt_[ssa.sqlName/].executeQuery(sql_[ssa.sqlName/]);
[if(ssa.handlingAction<>null)][GenerateAction(ssa.handlingAction)/][/if]
[ssa.sqlName/].close();
stmt_[ssa.sqlName/].close();
[/let]}
[elseif(anAction.oclIsTypeOf(SQLInsertAction))]{
[let sia : SQLInsertAction = anAction.oclAsType(SQLInsertAction)]
String sql_[sia.sqlName/]="insert into [sia.table/][for(c:String | sia.columns) before(' (') separator('"+","+"') after(')')][c/][/for] values ("+[for(c:String|sia.valueCodes) separator('+')][c/][/for]+")";
Statement stmt_[sia.sqlName/] = [sia.database.name.toLowerFirst()/]Conn.createStatement();  
int [sia.sqlName/] = stmt_[sia.sqlName/].executeUpdate(sql_[sia.sqlName/]);
[if(sia.handlingAction<>null)][GenerateAction(sia.handlingAction)/][/if]
stmt_[sia.sqlName/].close();
[/let]}
[elseif(anAction.oclIsTypeOf(SQLUpdateAction))]{
[let sua : SQLUpdateAction = anAction.oclAsType(SQLUpdateAction)]
String sql_[sua.sqlName/]="update [sua.table/] "+[for(i:Integer | Sequence{1..sua.columns->size()}) separator('+","+')]"set [sua.columns->at(i)/]="+[sua.valueCodes->at(i)/][/for][if(sua.conditionCode->size()>1)]+" where "+[sua.conditionCode/][/if];
Statement stmt_[sua.sqlName/] = [sua.database.name.toLowerFirst()/]Conn.createStatement();  
int [sua.sqlName/] = stmt_[sua.sqlName/].executeUpdate(sql_[sua.sqlName/]);
[if(sua.handlingAction<>null)][GenerateAction(sua.handlingAction)/][/if]
stmt_[sua.sqlName/].close();
[/let]}
[elseif(anAction.oclIsTypeOf(SQLDeleteAction))]{
[let sda : SQLDeleteAction = anAction.oclAsType(SQLDeleteAction)]
String sql_[sda.sqlName/]="delete from [sda.table/]"[if(sda.conditionCode->size()>1)]+" where "+[sda.conditionCode/][/if];
Statement stmt_[sda.sqlName/] = [sda.database.name.toLowerFirst()/]Conn.createStatement();  
int [sda.sqlName/] = stmt_[sda.sqlName/].executeUpdate(sql_[sda.sqlName/]);
[if(sda.handlingAction<>null)][GenerateAction(sda.handlingAction)/][/if]
stmt_[sda.sqlName/].close();
[/let]}
[elseif(anAction.oclIsTypeOf(SQLExecutionAction))]{
[let sea : SQLExecutionAction = anAction.oclAsType(SQLExecutionAction)]
String sql_[sea.sqlName/]=[sea.sqlCode/];
Statement stmt_[sea.sqlName/] = [sea.database.name.toLowerFirst()/]Conn.createStatement();  
boolean hasResult_[sea.sqlName/] = stmt_[sea.sqlName/].execute(sql_[sea.sqlName/]);
if(hasResult_[sea.sqlName/]){
ResultSet [sea.sqlName/]=stmt_[sea.sqlName/].getResultSet();
[if(sea.handlingAction<>null)][GenerateAction(sea.handlingAction)/][/if][sea.sqlName/].close();
}
}else{
[if(sea.handlingAction<>null)][GenerateAction(sea.handlingAction)/][/if]}
stmt_[sea.sqlName/].close();
[/let]}
[elseif(anAction.oclIsTypeOf(SQLResultSetIterationAction))]
[let sria : SQLResultSetIterationAction = anAction.oclAsType(SQLResultSetIterationAction)]
[let sa : SQLAction = sria.eContainer(SQLAction)]
while([sa.sqlName/].next()){
[GenerateAction(sria.action)/]}
[/let]
[/let]
[elseif(anAction.oclIsTypeOf(ServerPageStructuredTemplateAction))][let jst : ServerPageStructuredTemplateAction = anAction.oclAsType(ServerPageStructuredTemplateAction)]%>[jst.prefix/]<%[GenerateAction(jst.action)/]%>[jst.suffix/]<%[/let]
[/if]
[/if]
[/template]
[query public isStatement(act : Action) : Boolean = (let obj:OclAny = act.eContainer().oclAsType(OclAny) in obj.oclIsKindOf(StatementContainer))/]

[template private GenerateUnnamedJavascriptFunction(f : OperationRealization)]
function([for(p:Parameter | f.parameters) separator(',')][p.name/][/for]){
[GenerateOperationBody(f)/]}
[/template]

[template private GenerateClassComponent (aClassComponent : ClassComponent, aWebModel:WebApplication) ]
[let path : String = aClassComponent.packageName.replaceAll('\\.', '/')]
[file(path+'/'+aClassComponent.name+'.java', false, 'UTF-8')]
package [aClassComponent.packageName/];

import java.sql.*;
[for(im:String|aClassComponent.imports)]
import [im/];
[/for]

public class [aClassComponent.name/] {
[for(f:OperationRealization|aClassComponent.operations)]
[GenerateStaticJavaFunction(f,aWebModel.databaseUtilClass)/]
[/for]
}
[/file]
[/let]
[/template]

[template private GenerateStaticJavaFunction(f : OperationRealization, dbutil:String)]
static public [if(f.type.oclIsUndefined() or f.type->size()=0)]void[else][f.type/][/if] [f.name/]([for(p:Parameter | f.parameters) separator(',')][if(p.type.oclIsUndefined())]Object[else][p.type/][/if] [p.name/][/for]){
try{
[if(f.oclIsTypeOf(ActionOperation))]
[let referedDatabase : Set(Database) = f.oclAsType(ActionOperation).eAllContents(SQLAction)->collect(a:SQLAction|a.database)->asSet()]
[for (db : Database| referedDatabase)]
  Connection [db.name.toLowerFirst()/]Conn = [dbutil/].get[db.name.toUpperFirst()/]Connection();
[/for]
[/let]
[/if]
[GenerateOperationBody(f)/][if(f.oclIsTypeOf(ActionOperation))]
[let referedDatabase : Set(Database) = f.oclAsType(ActionOperation).eAllContents(SQLAction)->collect(a:SQLAction|a.database)->asSet()]
[for (db : Database| referedDatabase)]
  [db.name.toLowerFirst()/]Conn.close();
[/for]
[/let]
[/if]} catch(Exception exception) {
//TODO
[if(not f.type.oclIsUndefined() and f.type->size()<>0 and f.type<>'void')]
return null;
[else]
return;
[/if]
}
}
[/template]

[template private GenerateDatabaseUtil(aWebIS : WebApplication)]
[file (aWebIS.databaseUtilClass.replaceAll('\\.', '/')+'.java', false, 'UTF-8')]
[let seg : Integer = aWebIS.databaseUtilClass.lastIndex('.')]
[if(seg<>-1)]
package [aWebIS.databaseUtilClass.substring(1, seg-1)/];
import java.sql.Connection;
import java.sql.SQLException;
import org.apache.tomcat.dbcp.dbcp.BasicDataSource;

public class [aWebIS.databaseUtilClass.substring(seg+1)/] {
[else]
import java.sql.Connection;
import java.sql.SQLException;
import org.apache.tomcat.dbcp.dbcp.BasicDataSource;

public class [aWebIS.databaseUtilClass/] {
[/if]
[for (db : Database | aWebIS.databases)]
[let dbname:String = db.name.toLowerFirst()+'DataSource']
static private BasicDataSource [dbname/] = null;
  public static BasicDataSource get[db.name.toUpperFirst()/]DataSource() { 
    if([dbname/]==null) {
      [dbname/] = new BasicDataSource();
      [dbname/].setDriverClassName("[db.driverName/]");
      [dbname/].setUrl("[db.url/]");
      [dbname/].setUsername("[db.username/]");
      [dbname/].setPassword("[db.driverName/]");
      [dbname/].setInitialSize([db.initialSize/]);
      [dbname/].setMaxIdle([db.maxIdle/]);
      [dbname/].setMinIdle([db.minIdle/]);
      [dbname/].setMaxWait([db.maxWait/]);
      [dbname/].setMaxActive([db.maxActive/]);
      [dbname/].setPoolPreparedStatements(true);
    }
    return [dbname/];
  }

  public static Connection get[db.name.toUpperFirst()/]Connection() throws SQLException {
    return get[db.name.toUpperFirst()/]DataSource().getConnection();
  }

[/let]
[/for]
}
[/let]
[/file]
[/template]