<?xml version="1.0" standalone="no"?>

<!DOCTYPE svg PUBLIC "-//W3C//DTD SVG 1.1//EN" 
"http://www.w3.org/Graphics/SVG/1.1/DTD/svg11.dtd">

<svg width="80" height="80" version="1.1"
xmlns="http://www.w3.org/2000/svg">

<circle cx="40" cy="40" r="40" stroke="black"
stroke-width="1" fill="white"/>
<circle cx="40" cy="40" r="30" stroke="black"
stroke-width="1" fill="black"/>

</svg>